The normal distribution
…
## 
## Attaching package: 'dplyr'

## The following objects are masked from 'package:stats':
## 
##     filter, lag

## The following objects are masked from 'package:base':
## 
##     intersect, setdiff, setequal, union

fdims %>% dplyr::count(age)

## # A tibble: 37 x 2
##      age     n
##    <int> <int>
##  1    18     3
##  2    19    20
##  3    20    25
##  4    21    12
##  5    22    13
##  6    23    19
##  7    24    13
##  8    25    19
##  9    26    12
## 10    27     8
## # ... with 27 more rows
…
